Sitzung 3a
…
Denken Sie noch einmal ber das experimentelle Design nach. Welche der beiden Abbildungen erscheint Ihnen angemessener, um die vorliegenden Daten zu beschreiben? Warum?

3 Umgang mit fehlenden Werten

Zuletzt wollen wir uns noch ansehen, was passiert, wenn ein Datensatz fehlende Werte (Missing Values) enthlt. Dazu gibt es noch eine zweite csv Datei, Daten_MissingValues_EinfuehrungTeil2.csv.

Zum laden der Daten benutzen wir einfach den Code von vorhin mit abgendertem Dateinamen.

Daten2_Uebung2 <- read_delim("Daten_MissingValues_EinfuehrungTeil2.csv", ";", escape_double = FALSE, trim_ws = TRUE)

Wie Sie sehen knnen, gab es trotz der Missing Values keine Fehlermeldung beim Einlesen. Betrachten wir zunchst die Datenmatrix:

Daten2_Uebung2

## # A tibble: 80 x 3
##    Subj_ID Priming_Numeric IQ_T1
##      <dbl>           <dbl> <dbl>
##  1       2               0  91.3
##  2       4               0  86.2
##  3       6               0  77.7
##  4       8               0  72.2
##  5      10               0  76.5
##  6      12               0  84.4
##  7      14               0  67.8
##  8      16               0  79.2
##  9      18               0  NA  
## 10      20               0  80.3
## # ... with 70 more rows
…
